{
  "project_info": {
    "project_number": "1021355131245",
    "firebase_url": "https://chudachuda-f0e6f.firebaseio.com",
    "project_id": "chudachuda-f0e6f",
    "storage_bucket": "chudachuda-f0e6f.appspot.com"
  },
  "client": [
    {
      "client_info": {
        "mobilesdk_app_id": "1:1021355131245:android:0ea12c2c80613ac7811a64",
        "android_client_info": {
          "package_name": "com.upspring.chudachuda"
        }
      },
      "oauth_client": [
        {
          "client_id": "1021355131245-dbhc3is42hbj9jf14oikf4to4hemces5.apps.googleusercontent.com",
          "client_type": 3
        }
      ],
      "api_key": [
        {
          "current_key": "AIzaSyAzdKzSfmdOdoUlAPinyBMIl0iM31HkSoU"
        }
      ],
      "services": {
        "appinvite_service": {
          "other_platform_oauth_client": [
            {
              "client_id": "1021355131245-dbhc3is42hbj9jf14oikf4to4hemces5.apps.googleusercontent.com",
              "client_type": 3
            }
          ]
        }
      }
    }
  ],
  "configuration_version": "1"
}